{
    "Normal cat": {
        "Normal cat": [
            {
                "id": "3",
                "name": "Axe Cat",
                "ability": "Only take 1/2 damage and 1.5 times damage against Red Enemies",
                "image" : "http://res.cloudinary.com/llmrhjgth/image/upload/v1425526305/axe_cat_cd4urz.jpg"
            },
            {
                "id": "7",
                "name": "Fish Cat",
                "ability": "Only take 1/2 damage and 1.5 times damage against Red Enemies; 2% chance for Critical damage (only in True form)",
                "image" : "http://res.cloudinary.com/llmrhjgth/image/upload/v1425526305/fish_cat_ixrjyn.jpg"
            },
            {
                "id": "9",
                "name": "Titan Cat",
                "ability": "Better knock back distance against all Enemies (30%) (except Metal Enemies) (only in True form)",
                "image" : "http://res.cloudinary.com/llmrhjgth/image/upload/v1425526305/titan_cat_fs0ei3.jpg"
            }
        ]
    },
    "Special Cats": {
        "Purchased Cats": [
            {
                "id": "20",
                "name": "Ninja Cat",
                "ability": "Only take 1/2 damage and 1.5 times damage against Red Enemies",
                "image" : "http://res.cloudinary.com/llmrhjgth/image/upload/v1425526305/axe_cat_cd4urz.jpg"
            },
            {
                "id": "21",
                "name": "Zombie Cat",
                "ability": "Only takes 1/2 damage and 1.5 times damage against Red Enemies",
                "image" : "http://res.cloudinary.com/llmrhjgth/image/upload/v1425526305/axe_cat_cd4urz.jpg"
            },
            {
                "id": "22",
                "name": "Dom Cat",
                "ability": "Only take 1/2 damage and 1.5 times damage against Red Enemies",
                "image" : "http://res.cloudinary.com/llmrhjgth/image/upload/v1425526305/axe_cat_cd4urz.jpg"
            },
            {
                "id": "23",
                "name": "Bondage Cat",
                "ability": "Only take 1/2 damage and 1.5 times damage against Red Enemies",
                "image" : "http://res.cloudinary.com/llmrhjgth/image/upload/v1425526305/axe_cat_cd4urz.jpg"
            }
        ],
        "Unlockable CatsEdit": [
            {
                "id": "24",
                "name": "Ururun Wolf",
                "ability": "Better knock back distance against all Enemies (except Metal Enemies) (20%)",
                "image" : "http://res.cloudinary.com/llmrhjgth/image/upload/v1425526305/axe_cat_cd4urz.jpg"
            }
        ],
        "​Bonus Cats": [
            {
                "id": "25",
                "name": "Bean Cats",
                "ability": "Better knock back distance against Red Enemies (30%)",
                "image" : "http://res.cloudinary.com/llmrhjgth/image/upload/v1425526305/axe_cat_cd4urz.jpg"
            },
            {
                "id": "26",
                "name": "Moneko",
                "ability": "15% chance for Critical damage",
                "image" : "http://res.cloudinary.com/llmrhjgth/image/upload/v1425526305/axe_cat_cd4urz.jpg"
            }
        ],
        "Others": [
            {
                "id": "27",
                "name": "Neneko",
                "ability": "15% for a Critical damage",
                "image" : "http://res.cloudinary.com/llmrhjgth/image/upload/v1425526305/axe_cat_cd4urz.jpg"
            },
            {
                "id": "28",
                "name": "Cat's Castle Mini",
                "ability": "100% chance for Lv.3 Shock wave attack",
                "image" : "http://res.cloudinary.com/llmrhjgth/image/upload/v1425526305/axe_cat_cd4urz.jpg"
            }
        ]
    },
    "​Rare Cats": {
        "Gacha/Jackpot Cats": [
            {
                "id": "29",
                "name": "Ice Cat",
                "ability": "Stop the movement of Red Enemies (50%)",
                "image" : "http://res.cloudinary.com/llmrhjgth/image/upload/v1425526305/axe_cat_cd4urz.jpg"
            },
            {
                "id": "30",
                "name": "Cat Machine",
                "ability": "Only takes 1/4 damage from Red Enemies",
                "image" : "http://res.cloudinary.com/llmrhjgth/image/upload/v1425526305/axe_cat_cd4urz.jpg"
            },
            {
                "id": "31",
                "name": "Marauder Cat",
                "ability": "Critical damage (20%)",
                "image" : "http://res.cloudinary.com/llmrhjgth/image/upload/v1425526305/axe_cat_cd4urz.jpg"
            },
            {
                "id": "32",
                "name": "Baby Cat",
                "ability": "Better knock back distance against Floating Enemies (30%)",
                "image" : "http://res.cloudinary.com/llmrhjgth/image/upload/v1425526305/axe_cat_cd4urz.jpg"
            },
            {
                "id": "33",
                "name": "Nurse Cat",
                "ability": "50% chance for knocking back and stop the movement of Black Enemies and Floating Enemies.",
                "image" : "http://res.cloudinary.com/llmrhjgth/image/upload/v1425526305/axe_cat_cd4urz.jpg"
            },
            {
                "id": "34",
                "name": "Nekoluga",
                "ability": "Better knock back distance against all Enemies (except Metal Enemies) (100%)",
                "image" : "http://res.cloudinary.com/llmrhjgth/image/upload/v1425526305/axe_cat_cd4urz.jpg"
            },
            {
                "id": "35",
                "name": "Ashiruga",
                "ability": "Slow down the movement of All Enemies for 60f (100%)",
                "image" : "http://res.cloudinary.com/llmrhjgth/image/upload/v1425526305/axe_cat_cd4urz.jpg"
            },
            {
                "id": "36",
                "name": "Kubiruga",
                "ability": "Knock back White, Red, Black, Floating and Angel Enemies (100%); 100% chance for Lv.8 Shock wave attack",
                "image" : "http://res.cloudinary.com/llmrhjgth/image/upload/v1425526305/axe_cat_cd4urz.jpg"
            },
            {
                "id": "37",
                "name": "Tekoruga",
                "ability": "Critical damage (10%)",
                "image" : "http://res.cloudinary.com/llmrhjgth/image/upload/v1425526305/axe_cat_cd4urz.jpg"
            },
            {
                "id": "38",
                "name": "Bararaga",
                "ability": "Stop the movement of All Enemies for 70f (100%)",
                "image" : "http://res.cloudinary.com/llmrhjgth/image/upload/v1425526305/axe_cat_cd4urz.jpg"
            },
            {
                "id": "39",
                "name": "Sanada Yukimura",
                "ability": "Triple damage to Black Enemies",
                "image" : "http://res.cloudinary.com/llmrhjgth/image/upload/v1425526305/axe_cat_cd4urz.jpg"
            },
            {
                "id": "40",
                "name": "Maeda Keiji",
                "ability": "Only takes 1/4 damage from Black Enemies",
                "image" : "http://res.cloudinary.com/llmrhjgth/image/upload/v1425526305/axe_cat_cd4urz.jpg"
            },
            {
                "id": "41",
                "name": "Oda Nobunaga",
                "ability": "Stop the movement of Black Enemies (100%)",
                "image" : "http://res.cloudinary.com/llmrhjgth/image/upload/v1425526305/axe_cat_cd4urz.jpg"
            },
            {
                "id": "42",
                "name": "Date Masamune",
                "ability": "Better knock back distance against Red and Black Enemies (40%)",
                "image" : "http://res.cloudinary.com/llmrhjgth/image/upload/v1425526305/axe_cat_cd4urz.jpg"
            },
            {
                "id": "43",
                "name": "Takeda Shingen",
                "ability": "Only attack Black Enemies",
                "image" : "http://res.cloudinary.com/llmrhjgth/image/upload/v1425526305/axe_cat_cd4urz.jpg"
            },
            {
                "id": "44",
                "name": "Uesugi Kenshin",
                "ability": "Only takes 1/2 damage and 1.5 times damage to Black Enemies; 100% chance for knocking back Black Enemies",
                "image" : "http://res.cloudinary.com/llmrhjgth/image/upload/v1425526305/axe_cat_cd4urz.jpg"
            },
            {
                "id": "45",
                "name": "Windy",
                "ability": "Triple damage to Floating Enemies",
                "image" : "http://res.cloudinary.com/llmrhjgth/image/upload/v1425526305/axe_cat_cd4urz.jpg"
            },
            {
                "id": "46",
                "name": "Thundia",
                "ability": "Triple damage to Red Enemies",
                "image" : "http://res.cloudinary.com/llmrhjgth/image/upload/v1425526305/axe_cat_cd4urz.jpg"
            },
            {
                "id": "47",
                "name": "Kuu",
                "ability": "Only takes 1/2 damage and 1.5 times damages against Red and Black Enemies",
                "image" : "http://res.cloudinary.com/llmrhjgth/image/upload/v1425526305/axe_cat_cd4urz.jpg"
            },
            {
                "id": "48",
                "name": "Kai",
                "ability": "Only takes 1/4 damage from Floating Enemies",
                "image" : "http://res.cloudinary.com/llmrhjgth/image/upload/v1425526305/axe_cat_cd4urz.jpg"
            },
            {
                "id": "49",
                "name": "Coppermine",
                "ability": "Stop the movement of Floating Enemies (50%)",
                "image" : "http://res.cloudinary.com/llmrhjgth/image/upload/v1425526305/axe_cat_cd4urz.jpg"
            },
            {
                "id": "50",
                "name": "Meikai no Karifa",
                "ability": "Triple damage to Angel Enemies",
                "image" : "http://res.cloudinary.com/llmrhjgth/image/upload/v1425526305/axe_cat_cd4urz.jpg"
            },
            {
                "id": "51",
                "name": "Megidora",
                "ability": "Better knock back distance against Flying Enemy (50%); Slow down movement of Flying Enemies (50%)",
                "image" : "http://res.cloudinary.com/llmrhjgth/image/upload/v1425526305/axe_cat_cd4urz.jpg"
            },
            {
                "id": "52",
                "name": "Sodom",
                "ability": "Only takes 1/4 damage from Flying Enemies; Better knock back distance against Flying Enemies (50%)",
                "image" : "http://res.cloudinary.com/llmrhjgth/image/upload/v1425526305/axe_cat_cd4urz.jpg"
            },
            {
                "id": "53",
                "name": "Raiden",
                "ability": "Better knock back distance against Red Enemies (100%)",
                "image" : "http://res.cloudinary.com/llmrhjgth/image/upload/v1425526305/axe_cat_cd4urz.jpg"
            },
            {
                "id": "54",
                "name": "Vars",
                "ability": "Better knock back distance against Black Enemies (50%); Slow down movement of Black Enemies (50%)",
                "image" : "http://res.cloudinary.com/llmrhjgth/image/upload/v1425526305/axe_cat_cd4urz.jpg"
            },
            {
                "id": "55",
                "name": "Kamukura",
                "ability": "Better knock back distance against Red Enemies (50%); Slow down movement of Red Enemies (50%)",
                "image" : "http://res.cloudinary.com/llmrhjgth/image/upload/v1425526305/axe_cat_cd4urz.jpg"
            },
            {
                "id": "56",
                "name": "Urashima Taro",
                "ability": "Only takes 1/4 damage from Black and Angel Enemies",
                "image" : "http://res.cloudinary.com/llmrhjgth/image/upload/v1425526305/axe_cat_cd4urz.jpg"
            },
            {
                "id": "57",
                "name": "The Grateful Crane",
                "ability": "Might knock back Floating and Angel Enemies (20% in normal form - 100% in evolved form)",
                "image" : "http://res.cloudinary.com/llmrhjgth/image/upload/v1425526305/axe_cat_cd4urz.jpg"
            },
            {
                "id": "58",
                "name": "Momotaro",
                "ability": "Might stop for 70f (100f in evolved form) the movement of Red andAngel enemies (30%)",
                "image" : "http://res.cloudinary.com/llmrhjgth/image/upload/v1425526305/axe_cat_cd4urz.jpg"
            },
            {
                "id": "59",
                "name": "Kasa Jizo",
                "ability": "Triple damage to Black and Angel Enemies",
                "image" : "http://res.cloudinary.com/llmrhjgth/image/upload/v1425526305/axe_cat_cd4urz.jpg"
            },
            {
                "id": "60",
                "name": "Princess Kaguya",
                "ability": "Might slow down 70f (110f in evolved form) the movement of Metal Enemies and Angel Enemies (20% in normal form - 50% in evolved form)",
                "image" : "45"
            }
        ],
        "Event Cats": [
            {
                "id": "61",
                "name": "Crazed Gross Cat",
                "ability": "100% chance for lv.3 Shock wave attack",
                "image" : "http://res.cloudinary.com/llmrhjgth/image/upload/v1425526305/axe_cat_cd4urz.jpg"
            },
            {
                "id": "62",
                "name": "Crazed Fish Cat",
                "ability": "2% chance for Critical damage",
                "image" : "http://res.cloudinary.com/llmrhjgth/image/upload/v1425526305/axe_cat_cd4urz.jpg"
            },
            {
                "id": "63",
                "name": "Crazed Titan Cat",
                "ability": "10% chance for lv.10 Shock wave attack",
                "image" : "http://res.cloudinary.com/llmrhjgth/image/upload/v1425526305/axe_cat_cd4urz.jpg"
            }
        ],
        "​Event Limited-stage Cats": [
            {
                "id": "64",
                "name": "Space Cat",
                "ability": "1% chance for Critical Damage",
                "image" : "http://res.cloudinary.com/llmrhjgth/image/upload/v1425526305/axe_cat_cd4urz.jpg"
            },
            {
                "id": "65",
                "name": "Bronze Cat",
                "ability": "Better knock back distance against Metal Enemies (20%)",
                "image" : "http://res.cloudinary.com/llmrhjgth/image/upload/v1425526305/axe_cat_cd4urz.jpg"
            },
            {
                "id": "66",
                "name": "Rope Jump Cat",
                "ability": "2% chance for Critical Damage",
                "image" : "http://res.cloudinary.com/llmrhjgth/image/upload/v1425526305/axe_cat_cd4urz.jpg"
            },
            {
                "id": "67",
                "name": "Clockwork Cat",
                "ability": "Double money gained for defeating Enemies",
                "image" : "http://res.cloudinary.com/llmrhjgth/image/upload/v1425526305/axe_cat_cd4urz.jpg"
            },
            {
                "id": "68",
                "name": "Hoop Cat",
                "ability": "Stop for 60f the movement of Metal Enemies (20%)",
                "image" : "http://res.cloudinary.com/llmrhjgth/image/upload/v1425526305/axe_cat_cd4urz.jpg"
            }
        ]
    },
    "Collaboration Event Cats": {
        "Unimplemented Cats": [
            {
                "id": "69",
                "name": "Evangelist Cat",
                "ability": "Stop the movement of all Enemies (except Metal Enemies) (100%)",
                "image" : "http://res.cloudinary.com/llmrhjgth/image/upload/v1425526305/axe_cat_cd4urz.jpg"
            },
            {
                "id": "70",
                "name": "Chicken Cat",
                "ability": "15% chance for lv.10 Shock wave attack",
                "image" : "http://res.cloudinary.com/llmrhjgth/image/upload/v1425526305/axe_cat_cd4urz.jpg"
            }
        ],
        "Google Android": [
            {
                "id": "71",
                "name": "Droid Cat",
                "ability": "Only takes 1/4 damage from Metal Enemies",
                "image" : "http://res.cloudinary.com/llmrhjgth/image/upload/v1425526305/axe_cat_cd4urz.jpg"
            }
        ],
        "Princess Punt": [
            {
                "id": "72",
                "name": "Chibigau",
                "ability": "Only takes 1/4 damage from Black Enemies",
                "image" : "http://res.cloudinary.com/llmrhjgth/image/upload/v1425526305/axe_cat_cd4urz.jpg"
            },
            {
                "id": "73",
                "name": "Cow Princess",
                "ability": "Triple damage to Black Enemies",
                "image" : "http://res.cloudinary.com/llmrhjgth/image/upload/v1425526305/axe_cat_cd4urz.jpg"
            },
            {
                "id": "74",
                "name": "Enforcer",
                "ability": "Slow down movement of Black Enemies (40%)",
                "image" : "http://res.cloudinary.com/llmrhjgth/image/upload/v1425526305/axe_cat_cd4urz.jpg"
            },
            {
                "id": "75",
                "name": "KHM48",
                "ability": "Stop the movement of Black Enemies (40%)",
                "image" : "http://res.cloudinary.com/llmrhjgth/image/upload/v1425526305/axe_cat_cd4urz.jpg"
            },
            {
                "id": "76",
                "name": "Burning Phoenix",
                "ability": "Only takes 1/2 damage and 1.5 times damage to Angel Enemies.",
                "image" : "http://res.cloudinary.com/llmrhjgth/image/upload/v1425526305/axe_cat_cd4urz.jpg"
            },
            {
                "id": "77",
                "name": "Crazed Kerihime",
                "ability": "Might knock back Metal Enemies (40%)",
                "image" : "http://res.cloudinary.com/llmrhjgth/image/upload/v1425526305/axe_cat_cd4urz.jpg"
            }
        ],
        "Million Arthur": [
            {
                "id": "78",
                "name": "Nimue",
                "ability": "Triple damage to Red Enemies",
                "image" : "http://res.cloudinary.com/llmrhjgth/image/upload/v1425526305/axe_cat_cd4urz.jpg"
            },
            {
                "id": "79",
                "name": "Clone Elle",
                "ability": "Only takes 1/2 damage and 1.5 times damage to Red Enemies",
                "image" : "http://res.cloudinary.com/llmrhjgth/image/upload/v1425526305/axe_cat_cd4urz.jpg"
            }
        ],
        "Merc Storia": [
            {
                "id": "80",
                "name": "Seresu",
                "ability": "Slow down movement of Red Enemies (20%)",
                "image" : "http://res.cloudinary.com/llmrhjgth/image/upload/v1425526305/axe_cat_cd4urz.jpg"
            },
            {
                "id": "81",
                "name": "Nono",
                "ability": "Only takes 1/4 damage from Black Enemies",
                "image" : "http://res.cloudinary.com/llmrhjgth/image/upload/v1425526305/axe_cat_cd4urz.jpg"
            },
            {
                "id": "82",
                "name": "Norun",
                "ability": "Stop the movement of Red Enemies (20%)",
                "image" : "http://res.cloudinary.com/llmrhjgth/image/upload/v1425526305/axe_cat_cd4urz.jpg"
            },
            {
                "id": "83",
                "name": "Seramu",
                "ability": "Better knock back distance against Black Enemies (30%)",
                "image" : "http://res.cloudinary.com/llmrhjgth/image/upload/v1425526305/axe_cat_cd4urz.jpg"
            },
            {
                "id": "84",
                "name": "Oruga",
                "ability": "Better knock back distance against Red Enemies (30%)",
                "image" : "http://res.cloudinary.com/llmrhjgth/image/upload/v1425526305/axe_cat_cd4urz.jpg"
            },
            {
                "id": "85",
                "name": "Fuu",
                "ability": "Stop the movement of Black Enemies (20%)",
                "image" : "http://res.cloudinary.com/llmrhjgth/image/upload/v1425526305/axe_cat_cd4urz.jpg"
            },
            {
                "id": "86",
                "name": "Yoichi",
                "ability": "Slow down movement of Black Enemies (20%)",
                "image" : "http://res.cloudinary.com/llmrhjgth/image/upload/v1425526305/axe_cat_cd4urz.jpg"
            },
            {
                "id": "87",
                "name": "Rei",
                "ability": "Slow down movement of Black Enemies (20%)",
                "image" : "http://res.cloudinary.com/llmrhjgth/image/upload/v1425526305/axe_cat_cd4urz.jpg"
            },
            {
                "id": "88",
                "name": "Aura",
                "ability": "Better knock back distance against Black Enemies (40%)",
                "image" : "http://res.cloudinary.com/llmrhjgth/image/upload/v1425526305/axe_cat_cd4urz.jpg"
            },
            {
                "id": "89",
                "name": "Wyburn",
                "ability": "Triple damage to Black Enemies",
                "image" : "http://res.cloudinary.com/llmrhjgth/image/upload/v1425526305/axe_cat_cd4urz.jpg"
            },
            {
                "id": "90",
                "name": "More Warlock",
                "ability": "Stop the movement of all Enemies (except Metal Enemies) (50%)",
                "image" : "http://res.cloudinary.com/llmrhjgth/image/upload/v1425526305/axe_cat_cd4urz.jpg"
            },
            {
                "id": "91",
                "name": "Merc",
                "ability": "2% chance for Critical Damage",
                "image" : "http://res.cloudinary.com/llmrhjgth/image/upload/v1425526305/axe_cat_cd4urz.jpg"
            }
        ],
        "Dragon League": [
            {
                "id": "92",
                "name": "Drury Swordsman",
                "ability": "Only takes 1/2 damage and 1.5 times damage to Black enemies",
                "image" : "http://res.cloudinary.com/llmrhjgth/image/upload/v1425526305/axe_cat_cd4urz.jpg"
            },
            {
                "id": "93",
                "name": "Nubobo",
                "ability": "Only takes 1.4 damage from Angel Enemies",
                "image" : "http://res.cloudinary.com/llmrhjgth/image/upload/v1425526305/axe_cat_cd4urz.jpg"
            }
        ]
    }
}