{
    "cat_unit": [
        {
            "id": "1",
            "name": "Normal Cats",
            "image" : "http://res.cloudinary.com/llmrhjgth/image/upload/v1425453986/normal_ijv7mj.jpg"
        },
        {
            "id": "2",
            "name": "Special / EX Cats",
            "image" : "http://res.cloudinary.com/llmrhjgth/image/upload/v1425453975/bahamut_tyuxxn.jpg"
        },
        {
            "id": "3",
            "name": "Rare Cats",
            "image" : "http://res.cloudinary.com/llmrhjgth/image/upload/v1425453981/rare_vixirm.jpg"
        },
        {
            "id": "4",
            "name": "Super Rare Cats",
            "image" : "http://res.cloudinary.com/llmrhjgth/image/upload/v1425453970/super_rare_vpr5iw.jpg"
        },
        {
            "id": "5",
            "name": "Ultra / Uber Rare Cats",
            "image" : "http://res.cloudinary.com/llmrhjgth/image/upload/v1425453965/ultra_uber_rare_h12wgp.jpg"
        },
        {
            "id": "6",
            "name": "Collaboration Event Cats",
            "image" : "http://res.cloudinary.com/llmrhjgth/image/upload/v1425454217/images_zotpiv.jpg"
        }
    ]
}