{
    "enemy_unit" : [
        {
            "id" : "1",
            "name" : "White Enemies",
            "image" : "http://res.cloudinary.com/llmrhjgth/image/upload/v1425451973/white_enemy_pi4wqa.jpg"
        },
        {
            "id" : "2",
            "name" : "Red Enemies",
            "image" : "http://res.cloudinary.com/llmrhjgth/image/upload/v1425451973/red_enemy_ykkqbe.jpg"
        },
        {
            "id" : "3",
            "name" : "Floating Enemies",
            "image" : "http://res.cloudinary.com/llmrhjgth/image/upload/v1425451973/floating_enemy_hpeguq.jpg"
        },
        {
            "id" : "4",
            "name" : "Black  Enemies",
            "image" : "http://res.cloudinary.com/llmrhjgth/image/upload/v1425451973/black_enemy_fodngg.jpg"
        },
        {
            "id" : "5",
            "name" : "Metal Enemies",
            "image" : "http://res.cloudinary.com/llmrhjgth/image/upload/v1425451973/metal_enemy_oevbwz.jpg"
        },
        {
            "id" : "6",
            "name" : "Angel Enemies",
            "image" : "http://res.cloudinary.com/llmrhjgth/image/upload/v1425451973/angel_enemy_ri27cw.jpg"
        },
        {
            "id" : "7",
            "name" : "Colorless Enemies",
            "image" : "white_enemy.jpg"
        }
    ]
}